{
  "defaultConnection": "default",
  "connections": {
    "default": {
      "connector": "mongoose",
      "settings": {
        "client": "mongo",
        "uri": "${process.env.DATABASE_URI || ''}",
        "host": "${process.env.DATABASE_HOST || '127.0.0.1'}",
        "port": "${process.env.DATABASE_PORT || 27017}",
        "database": "${process.env.DATABASE_NAME || 'strapi-staging'}",
        "username": "${process.env.DATABASE_USERNAME || ''}",
        "password": "${process.env.DATABASE_PASSWORD || ''}"
      },
      "options": {
        "ssl": "${process.env.DATABASE_SSL || false}",
        "authenticationDatabase": "${process.env.DATABASE_AUTHENTICATION_DATABASE || ''}"
      }
    }
  }
}
