{
  "connection": "default",
  "collectionName": "",
  "info": {
    "name": "city",
    "description": ""
  },
  "options": {
    "timestamps": true
  },
  "attributes": {
    "pCode": {
      "default": "",
      "unique": true,
      "type": "string",
      "required": true
    },
    "admin1Name": {
      "default": "",
      "type": "string"
    },
    "admin4Name": {
      "default": "",
      "type": "string",
      "required": true
    },
    "products": {
      "collection": "product",
      "via": "city"
    }
  }
}